Amanda Plocharski - Analysis Walkthrough
…
Code

 impeach %>% 
   group_by(for_impeachment)%>%
   filter(for_impeachment == "YES",
          margin_flag_2018 == "more_than_5_points")

# A tibble: 192 × 32
# Groups:   for_impeachment [1]
   for_impea…¹ last_…² first…³ middl…⁴ party state distr…⁵ date_exact date_app…⁶
   <chr>       <chr>   <chr>   <chr>   <chr> <chr> <chr>   <date>     <date>    
 1 YES         Adams   Alma    <NA>    D     NC    12      2019-05-31 NA        
 2 YES         Aguilar Pete    <NA>    D     CA    31      2019-08-01 NA        
 3 YES         Barrag… Nanette <NA>    D     CA    44      NA         2019-06-01
 4 YES         Bass    Karen   <NA>    D     CA    37      2019-09-24 NA        
 5 YES         Beatty  Joyce   <NA>    D     OH    3       2019-05-31 NA        
 6 YES         Bera    Ami     <NA>    D     CA    7       2019-09-24 NA        
 7 YES         Beyer   Donald  <NA>    D     VA    8       NA         2019-05-01
 8 YES         Bishop  Sanford D.      D     GA    2       2019-09-24 NA        
 9 YES         Blumen… Earl    <NA>    D     OR    3       2019-05-03 NA        
10 YES         Blunt … Lisa    <NA>    D     DE    At-Lar… 2019-07-25 NA        
# … with 182 more rows, 23 more variables: date_comb <date>, date_month <dbl>,
#   date_year <dbl>, margin_flag_2018 <chr>, flip_2018 <chr>, house_dist <chr>,
#   keyrace_rating <chr>, median_income <dbl>,
#   median_income_compared_to_national <chr>, median_age <dbl>,
#   median_age_compared_to_national <chr>, pct_nonwhite <dbl>,
#   pct_nonwhite_compared_to_national <chr>, pct_bachelors <dbl>,
#   pct_bachelors_compared_to_national <chr>, rural_pop_above20pct <chr>, …
…
